2021/08/02 02:25:24 INFO  : wp_mapping.csv: Updated modification time in destination
2021/08/02 02:25:31 INFO  : hyundai_dma_raw.csv: Copied (replaced existing)
2021/08/02 02:25:32 INFO  : hyundai_nat_raw.csv: Copied (replaced existing)
2021/08/02 02:25:40 INFO  : honda_nat_raw.csv: Copied (replaced existing)
2021/08/02 02:25:41 INFO  : mazda_nat_raw.csv: Copied (replaced existing)
2021/08/02 02:25:47 INFO  : subaru_dma_raw.csv: Copied (replaced existing)
2021/08/02 02:25:49 INFO  : mazda_dma_raw.csv: Copied (replaced existing)
2021/08/02 02:25:55 INFO  : honda_dma_raw.csv: Copied (replaced existing)
2021/08/02 02:25:56 INFO  : toyota_nat_raw.csv: Copied (replaced existing)
2021/08/02 02:26:09 INFO  : date_shift.csv: Updated modification time in destination
2021/08/02 02:26:09 INFO  : kg_mapping.csv: Updated modification time in destination
2021/08/02 02:26:10 INFO  : date_master.csv: Copied (replaced existing)
2021/08/02 02:26:11 INFO  : volkswagen_nat_raw.csv: Copied (replaced existing)
2021/08/02 02:26:12 INFO  : mkt_master.csv: Copied (replaced existing)
2021/08/02 02:26:15 INFO  : toyota_dma_raw.csv: Copied (replaced existing)
2021/08/02 02:26:18 INFO  : subaru_nat_raw.csv: Copied (replaced existing)
2021/08/02 02:26:23 INFO  : 
Transferred:   	  252.386M / 296.893 MBytes, 85%, 4.236 MBytes/s, ETA 10s
Checks:                17 / 18, 94%
Transferred:           13 / 14, 93%
Elapsed time:      1m17.1s
Checking:
 *                                dlr_master.csv: checking
Transferring:
 *                        volkswagen_dma_raw.csv:  0% /44.506M, 0/s, -

2021/08/02 02:26:24 INFO  : dlr_master.csv: Updated modification time in destination
2021/08/02 02:26:49 INFO  : volkswagen_dma_raw.csv: Copied (replaced existing)
2021/08/02 02:26:49 INFO  : 
Transferred:   	  296.893M / 296.893 MBytes, 100%, 3.486 MBytes/s, ETA 0s
Checks:                18 / 18, 100%
Transferred:           14 / 14, 100%
Elapsed time:      1m42.7s

