vdate,projected_visits
2019-09-25,54487
2019-09-26,54317
2019-10-06,36307
2019-10-08,52009
2020-01-30,39195
2020-01-03,41271
2020-01-06,36410
2020-01-14,39015
2020-02-01,38875
2020-02-05,38417
2020-02-14,41562
2020-02-08,38909
2020-02-13,39571
2020-02-25,39468
2020-04-23,25621
2020-05-04,27444
2020-05-09,30556
2020-05-10,19693
2020-05-19,32586
2020-05-30,35038
2020-06-10,36252
2020-07-05,17770
2020-07-12,22080
2020-07-13,32955
2020-07-21,35117
2020-07-27,32799
2020-08-01,34877
2020-08-12,35437
2020-08-27,32484
2020-09-04,37577
2020-09-13,22578
2020-09-27,22098
2020-10-21,32412
2020-11-04,28626
2020-11-05,28617
2019-10-14,44500
2019-10-24,47838
2019-12-31,40953
2019-12-13,45368
2019-12-15,32839
2019-12-22,31493
2019-12-25,18735
2019-12-26,29794
2019-12-28,38082
2019-12-05,43350
2019-12-10,42496
2018-12-31,238
2018-12-29,39
2018-12-30,26
2018-12-22,11
2018-12-11,1
2018-12-19,4
2019-01-13,8433
2019-01-14,10928
2019-01-18,13265
2019-01-21,10938
2019-01-24,13419
2019-02-12,15210
2019-02-14,17188
2019-02-22,18403
2019-02-25,16961
2019-02-27,19009
2019-10-26,47302
2019-11-02,47543
2019-03-21,24815
2019-03-30,26971
2019-04-07,19725
2019-04-08,26103
2019-04-25,31292
2019-04-29,29945
2019-05-03,34781
2019-05-26,25880
2019-05-31,42978
2019-06-13,40856
2019-06-08,39327
2019-06-19,42986
2019-07-29,46355
2019-08-05,46294
2019-08-06,49234
2019-07-28,33098
2019-08-01,50092
2019-09-01,37649
2019-09-04,56069
2019-11-18,39763
2019-11-19,43807
2019-11-29,34993
2019-07-06,40632
2019-07-08,42578
2019-07-15,44242
2020-11-09,26292
2020-11-19,21404
2020-11-28,26995
2020-12-02,26910
2020-12-05,27494
2020-12-08,26841
2020-12-12,28192
2020-12-25,12319
2020-12-29,28916
2021-01-10,19332
2021-01-28,24652
2021-02-03,24604
2021-02-07,18384
2021-02-08,21915
2021-02-17,24040
2021-02-18,23139
2021-02-19,24337
2021-02-25,28371
2021-03-05,29946
2021-03-07,22814
2021-03-13,32078
2021-03-14,27494
2021-03-18,32647
2021-03-23,32424
2021-03-28,22598
2021-04-15,30637
2021-04-16,32445
2021-04-19,29107
2021-04-27,30941
2021-05-01,33775
2021-05-05,31286
2021-05-10,28833
2021-05-19,30473
2021-05-27,36189
2021-05-30,23080
2021-05-31,24721
2021-06-10,34252
2021-06-21,32054
2021-06-25,36521
2021-07-05,25779
2021-07-07,33841
2021-07-11,22979
2021-07-15,35348
2021-07-17,34562
2021-08-02,5199
2021-08-01,22939
2019-09-07,54479
2019-09-15,39540
2019-09-21,55977
2019-09-29,36839
2020-01-17,40800
2020-01-09,39452
2020-02-06,38358
2020-02-12,39376
2020-02-17,36541
2020-02-28,42125
2020-02-29,41566
2020-03-09,41445
2020-03-12,42120
2020-03-25,23278
2020-03-30,21372
2020-04-26,15730
2020-04-27,25111
2020-04-29,27490
2020-05-01,30432
2020-05-03,18215
2020-05-05,29756
2020-05-28,35003
2020-05-31,22148
2020-06-02,35059
2020-06-05,38465
2020-06-06,35678
2020-06-16,35968
2020-06-26,38781
2020-06-29,33864
2020-07-18,34277
2020-07-31,38564
2020-08-06,36094
2020-08-14,38131
2020-08-15,35090
2020-08-16,22235
2020-08-17,32701
2020-08-22,34750
2020-09-01,33894
2020-09-08,32289
2020-09-09,34191
2020-09-20,21708
2020-09-21,28772
2020-09-26,33925
2020-10-01,34391
2020-10-09,56234
2020-10-11,21804
2020-10-14,32865
2020-10-15,32906
2020-10-30,34593
2020-01-01,25158
2019-12-18,43417
2019-12-21,44298
2019-12-16,39970
2019-12-14,44310
2018-12-28,26
2018-12-25,4
2018-12-24,6
2018-12-17,2
2019-01-04,10867
2019-01-07,10212
2019-01-08,11168
2018-12-16,1
2019-01-12,11310
2019-01-17,12755
2019-01-26,13988
2019-01-28,12946
2019-01-31,13947
2019-02-18,15248
2019-02-20,16541
2019-03-02,19037
2019-03-03,14812
2019-03-07,20066
2020-11-06,29809
2019-03-10,18079
2019-03-15,25168
2019-03-18,23033
2019-03-26,25293
2019-04-02,26383
2019-04-04,26930
2019-04-09,27277
2019-04-11,27806
2019-04-16,29095
2019-04-19,31775
2019-05-02,32403
2019-05-09,34182
2019-05-13,32457
2019-05-15,35498
2019-05-17,37697
2019-06-06,41306
2019-06-07,42983
2019-06-22,42077
2019-06-24,41024
2019-06-25,44498
2019-07-27,46721
2019-08-09,52451
2019-08-12,47600
2019-08-16,53472
2019-07-22,44945
2019-08-21,52711
2019-08-24,52424
2019-09-03,53328
2019-11-20,43595
2019-11-22,48791
2019-11-26,45796
2019-09-05,56918
2020-11-10,28507
2020-11-24,29077
2020-11-27,23142
2020-11-25,26360
2020-12-26,16361
2020-12-31,29468
2021-01-27,24917
2021-02-04,25393
2021-02-11,24395
2021-02-21,20950
2021-03-11,29021
2021-03-10,28805
2021-03-15,30010
2021-03-16,31576
2021-03-20,37600
2021-04-14,30994
2021-04-26,29264
2021-05-04,30805
2021-05-09,22768
2021-05-15,33641
2021-05-20,32235
2021-05-21,34023
2021-05-24,32045
2021-07-04,19548
2021-07-18,22930
2021-07-23,36351
2021-07-28,34590
2021-07-29,34131
2021-07-30,36788
2019-09-24,55831
2019-10-02,54220
2019-09-10,55746
2019-10-03,53874
2019-10-04,56721
2020-01-11,37920
2020-01-13,36632
2020-01-16,39460
2020-01-26,28013
2020-01-27,36219
2020-01-28,38124
2020-01-29,38803
2020-02-03,35768
2020-02-19,38879
2020-02-27,40027
2020-03-08,34805
2020-03-16,35069
2020-03-24,24227
2020-04-10,23577
2020-04-14,22938
2020-04-15,23975
2020-04-19,14915
2020-04-24,27145
2020-04-25,26115
2020-04-28,27580
2020-05-11,27751
2020-05-15,33877
2020-05-29,37341
2020-06-14,23202
2020-06-17,36058
2020-07-06,33224
2020-07-09,35816
2020-07-16,35529
2020-07-23,35877
2020-07-24,37693
2020-07-26,22228
2020-08-19,34757
2020-08-26,33947
2020-08-29,34573
2020-09-05,34679
2020-10-06,32242
2020-10-16,34989
2020-10-18,21994
2020-10-19,30739
2020-10-24,33710
2020-10-26,30376
2020-10-31,33749
2019-12-24,41010
2019-12-11,42296
2019-01-01,4075
2018-12-26,14
2018-12-12,2
2019-01-05,10519
2019-01-11,12151
2019-01-27,10666
2019-01-29,14254
2019-02-02,15454
2019-02-13,16314
2019-02-19,17522
2019-02-21,17355
2019-03-01,20228
2019-10-30,47295
2019-11-01,50313
2019-11-06,43694
2019-11-13,42170
2019-11-14,43251
2019-03-11,21658
2019-03-14,23951
2019-03-24,18320
2019-03-28,25966
2019-03-29,27766
2019-04-05,28257
2019-04-15,27039
2019-06-09,27933
2019-06-21,45825
2019-08-10,48542
2019-08-20,52268
2019-08-23,55614
2019-11-15,44461
2019-12-01,29141
2020-11-14,29326
2020-11-21,28921
2020-11-29,18936
2020-12-06,19988
2020-12-10,27496
2020-12-17,24748
2020-12-22,30087
2020-12-28,24903
2021-01-04,23690
2021-01-19,26972
2021-01-21,25303
2021-01-23,26144
2021-01-24,19109
2021-02-01,20342
2021-02-05,26767
2021-02-13,26888
2021-02-16,22440
2021-02-20,27471
2021-02-22,24965
2021-02-23,27284
2021-03-03,28589
2021-03-12,30754
2021-03-25,31750
2021-04-01,31146
2021-04-03,34187
2021-04-22,30850
2021-05-08,33998
2021-06-12,34035
2021-06-13,23090
2021-06-18,37026
2021-06-22,34362
2021-06-27,23384
2021-07-03,33004
2021-07-08,34374
2021-07-26,32074
2021-07-31,34330
2020-11-16,25232
2019-09-02,35735
2019-09-13,60312
2020-01-19,26464
2020-01-21,39762
2020-01-22,38768
2020-01-25,38251
2020-01-15,38913
2020-02-16,28434
2020-02-21,39958
2020-02-23,29170
2020-03-07,40436
2020-04-02,23003
2020-04-06,20207
2020-04-07,21868
2020-04-16,24659
2020-04-20,22799
2020-05-02,29170
2020-05-06,29801
2020-05-21,34047
2020-05-25,22719
2020-05-26,32279
2020-06-19,39670
2020-06-24,36407
2020-06-25,36549
2020-07-10,37321
2020-07-14,36006
2020-07-15,35641
2020-07-20,32704
2020-07-28,35523
2020-08-02,22297
2020-08-03,33707
2020-08-09,22260
2020-08-21,36736
2020-08-31,31660
2020-09-07,22909
2020-10-08,39619
2020-10-25,21898
2020-10-27,32234
2019-09-11,55672
2019-10-11,53030
2019-10-15,47775
2019-10-19,46805
2019-10-20,32337
2019-12-30,36101
2019-12-20,47378
2019-12-27,41830
2020-01-05,26692
2019-12-09,38820
2018-12-18,3
2019-01-16,12565
2019-01-22,13532
2019-01-25,14178
2019-02-24,10988
2019-02-26,18567
2019-02-28,19229
2019-03-17,17279
2019-04-12,29026
2019-04-13,28031
2019-04-18,29571
2019-04-26,32786
2019-05-08,33785
2019-05-11,34513
2019-05-19,26019
2019-05-27,25893
2019-05-28,37816
2019-06-01,39436
2019-06-04,40452
2019-06-23,29751
2019-06-27,44016
2019-08-13,50314
2019-08-04,33647
2019-07-23,47972
2019-07-24,48344
2019-08-28,54558
2019-08-29,55705
2019-11-21,43461
2019-12-03,42546
2019-12-06,44884
2019-09-09,53384
2020-11-17,27908
2020-12-09,27024
2020-12-14,24398
2021-01-01,17619
2021-01-09,26246
2021-01-17,19385
2021-01-18,24974
2021-01-20,25113
2021-02-24,28329
2021-02-26,29681
2021-02-28,22532
2021-03-06,30806
2021-03-09,28784
2021-03-24,32291
2021-03-31,32630
2021-04-05,29507
2021-04-07,32052
2021-04-13,30972
2021-04-28,31127
2021-05-03,29444
2021-05-14,34084
2021-05-17,29828
2021-05-28,38749
2021-06-07,32218
2021-06-15,33880
2021-06-29,34165
2021-07-01,35463
2021-07-12,31810
2021-07-14,35036
2021-07-16,36813
2021-07-21,34646
2019-09-19,58406
2019-09-22,38934
2019-09-28,53490
2019-09-14,55863
2019-09-17,57434
2020-01-20,34779
2020-01-24,39694
2020-02-02,28764
2020-01-10,41129
2020-01-12,27150
2020-02-11,38801
2020-02-24,37363
2020-03-01,31152
2020-03-04,39781
2020-03-10,42633
2020-03-11,42693
2020-03-14,38830
2020-03-15,23246
2020-03-19,31165
2020-04-08,22113
2020-04-18,23453
2020-05-12,30613
2020-05-17,19888
2020-05-24,21132
2020-05-27,34502
2020-06-09,36162
2020-06-13,36152
2020-06-22,33284
2020-06-23,36259
2020-06-28,22183
2020-07-01,36808
2020-07-04,24470
2020-07-08,35611
2020-07-17,37628
2020-08-08,35141
2020-08-10,32999
2020-08-18,34572
2020-08-24,32346
2020-08-25,34214
2020-09-11,36390
2020-09-12,34945
2020-09-15,32757
2020-09-22,32581
2020-09-23,33274
2020-09-28,30623
2020-09-30,38095
2020-10-02,35397
2020-10-03,34526
2020-10-13,32264
2020-10-20,32307
2020-10-29,31979
2019-10-09,50678
2019-10-13,32209
2019-10-21,44613
2020-01-02,33059
2019-01-03,10669
2018-12-14,3
2019-01-06,8135
2019-01-09,10960
2019-02-07,15564
2019-02-15,18097
2019-02-17,12976
2019-02-23,18561
2019-03-04,16907
2019-10-29,47315
2019-11-10,31812
2019-11-11,39010
2019-03-16,24297
2019-04-10,27940
2019-04-17,29152
2019-04-30,31666
2019-05-05,23372
2019-05-07,33394
2019-05-10,35755
2019-05-12,24412
2019-06-15,39326
2019-06-28,46523
2019-08-15,50725
2019-07-19,49190
2019-08-02,52095
2019-08-03,47864
2019-07-25,48908
2019-08-18,35617
2019-08-19,49268
2019-08-26,50318
2019-11-25,40428
2019-11-28,28448
2019-07-04,30437
2019-07-05,40732
2019-07-10,46478
2019-07-11,46957
2019-07-14,30882
2019-07-18,47661
2020-11-08,21432
2020-11-20,29498
2020-11-22,19966
2020-12-07,24611
2020-12-11,28818
2020-12-15,27497
2021-01-02,20100
2021-01-08,26447
2021-01-12,25426
2021-01-14,25715
2021-01-15,26756
2021-01-25,22841
2021-02-09,25026
2021-02-12,26915
2021-02-27,30200
2021-03-01,25947
2021-03-02,27668
2021-03-27,35515
2021-03-30,32525
2021-04-04,19226
2021-04-08,31635
2021-04-18,22692
2021-04-21,30598
2021-04-23,33055
2021-04-24,33264
2021-04-25,22060
2021-04-30,33684
2021-05-29,35415
2021-06-08,34282
2021-06-09,34187
2021-06-19,34941
2021-06-26,34585
2021-07-02,37397
2021-07-06,33228
2021-07-25,22686
2021-07-27,34070
2020-11-15,20478
2019-09-16,54324
2019-09-27,56421
2019-09-18,57517
2019-10-07,49891
2020-01-31,40970
2020-01-18,37197
2020-02-20,38494
2020-02-22,39645
2020-02-26,39613
2020-03-02,37910
2020-03-17,34337
2020-03-20,27227
2020-03-29,12517
2020-04-04,19789
2020-04-05,12075
2020-04-21,25465
2020-05-08,31783
2020-05-23,33338
2020-06-08,33193
2020-06-12,38577
2020-06-15,33842
2020-06-18,36338
2020-07-19,21550
2020-07-29,35299
2020-08-04,34707
2020-08-05,36207
2020-08-11,35487
2020-08-13,35357
2020-08-20,34459
2020-08-30,22729
2020-09-02,33927
2020-09-03,34689
2020-09-14,31256
2020-09-17,32886
2020-09-25,34699
2020-09-29,32232
2020-10-10,37479
2020-10-12,30708
2020-10-17,34433
2020-10-23,35200
2019-10-16,47697
2019-10-17,48247
2019-10-18,51186
2019-12-08,31682
2018-12-27,15
2019-01-10,11392
2019-01-15,12267
2019-01-20,8639
2019-02-01,15080
2019-02-03,10997
2019-02-05,15340
2019-03-08,21105
2019-03-12,23016
2019-03-13,23424
2019-03-22,26097
2019-03-25,24076
2019-03-27,25356
2019-04-03,26375
2019-04-06,27197
2019-04-21,19355
2019-04-23,30354
2019-04-27,31463
2019-05-01,32206
2019-05-04,31877
2019-05-06,31790
2019-05-14,34340
2019-05-16,35825
2019-05-23,38783
2019-05-24,41351
2019-05-25,37129
2019-07-01,42116
2019-07-26,51231
2019-08-08,50193
2019-07-31,50509
2019-08-17,50053
2019-08-22,53134
2019-08-30,60229
2019-11-16,43849
2019-11-23,39142
2019-12-04,42812
2020-11-07,29590
2019-07-02,45035
2019-07-09,46109
2019-07-16,46972
2019-09-06,58341
2020-11-12,28966
2020-11-18,14659
2020-12-03,27369
2020-12-04,28560
2020-12-13,19968
2020-12-16,27759
2020-12-19,28845
2020-12-21,23146
2020-12-23,31685
2021-01-03,17563
2021-01-05,26729
2021-01-07,25919
2021-01-31,19611
2021-03-08,26610
2021-03-19,35817
2021-03-29,30400
2021-04-06,31557
2021-04-10,33919
2021-04-29,30958
2021-05-16,22435
2021-05-23,22035
2021-05-25,34800
2021-06-03,35960
2021-06-04,37578
2021-06-06,22999
2021-06-24,34403
2021-07-09,35880
2021-07-13,34420
2021-07-19,32391
2021-07-20,34351
2021-07-22,34779
2019-09-30,49911
2019-10-05,53399
2020-01-04,37572
2020-01-07,39606
2020-02-15,39649
2020-03-21,19457
2020-03-22,12951
2020-03-23,23917
2020-03-26,23873
2020-03-27,24796
2020-03-28,20437
2020-04-09,22194
2020-04-12,11138
2020-04-13,18890
2020-04-17,26054
2020-05-07,30083
2020-05-13,28978
2020-05-14,31331
2020-05-18,29786
2020-05-22,36427
2020-06-03,35305
2020-06-04,35794
2020-06-07,22393
2020-06-11,36270
2020-06-21,22973
2020-06-27,34979
2020-07-02,38031
2020-07-03,40177
2020-07-11,35045
2020-07-25,34828
2020-08-07,37924
2020-08-23,22466
2020-09-18,34764
2020-10-07,35030
2020-10-28,32141
2020-11-02,26166
2020-11-03,29470
2019-10-12,47892
2019-10-23,47592
2019-12-29,26214
2019-12-07,42743
2019-01-02,8424
2018-12-20,12
2019-01-19,12365
2019-01-23,13227
2019-02-06,15445
2019-02-08,16007
2019-02-09,15652
2019-02-10,11974
2019-02-11,14438
2019-03-05,19197
2019-10-28,44646
2019-10-31,47597
2019-11-03,27383
2019-11-04,40433
2019-11-05,43653
2019-11-09,43396
2019-03-19,24110
2019-03-31,18968
2019-04-01,25044
2019-04-14,20013
2019-04-22,27976
2019-05-18,35532
2019-05-20,35263
2019-05-29,39666
2019-06-03,38270
2019-06-11,41980
2019-06-17,40373
2019-06-20,43285
2019-08-14,50700
2019-08-11,34264
2019-08-27,53601
2019-11-17,32735
2019-07-13,43646
2019-07-17,47391
2020-11-13,29636
2020-11-23,25504
2020-12-18,28277
2020-12-20,20442
2020-12-27,17105
2021-01-06,26015
2021-01-11,22956
2021-01-13,25640
2021-01-16,26345
2021-01-22,26256
2021-01-29,26373
2021-02-02,22228
2021-02-10,25776
2021-03-22,31214
2021-03-26,34157
2021-04-11,22224
2021-04-12,29371
2021-04-17,33760
2021-04-20,30853
2021-05-02,21922
2021-05-11,30642
2021-05-12,31090
2021-05-22,32693
2021-05-26,34628
2021-06-01,33877
2021-06-11,36559
2021-06-16,34287
2021-06-17,34990
2021-06-20,23552
2021-06-30,34922
2021-07-24,34152
2019-09-20,61017
2019-09-23,53386
2019-10-01,54439
2019-09-12,56422
2020-01-08,39254
2020-01-23,38802
2020-02-04,38659
2020-02-07,39992
2020-02-09,28291
2020-02-10,36439
2020-02-18,39666
2020-03-03,40110
2020-03-05,40112
2020-03-06,41508
2020-03-13,44379
2020-03-18,32324
2020-03-31,22874
2020-04-01,22796
2020-04-03,23659
2020-04-11,20923
2020-04-22,25799
2020-04-30,28109
2020-05-16,32657
2020-05-20,32817
2020-06-01,33101
2020-06-20,36876
2020-06-30,36967
2020-07-07,36124
2020-07-22,35887
2020-07-30,36046
2020-08-28,36041
2020-09-06,22287
2020-09-10,34400
2020-09-16,32715
2020-09-19,34047
2020-09-24,32883
2020-10-04,22485
2020-10-05,31117
2020-10-22,33018
2020-11-01,17420
2019-10-10,50550
2019-10-22,47282
2019-10-25,50125
2019-12-17,40595
2019-12-19,45079
2019-12-23,42072
2018-12-05,1
2018-12-21,2
2018-12-23,5
2018-12-13,2
2019-01-30,13829
2019-02-04,13388
2019-02-16,16664
2019-03-06,19894
2019-10-27,32011
2019-11-07,44132
2019-11-08,45409
2019-11-12,43101
2019-03-09,20861
2019-03-20,24352
2019-03-23,24949
2019-04-20,29415
2019-04-24,30488
2019-04-28,22255
2019-05-21,37072
2019-05-22,37680
2019-05-30,40308
2019-06-02,27615
2019-06-16,28915
2019-06-14,52779
2019-06-05,40706
2019-06-10,38952
2019-06-12,42040
2019-06-18,42702
2019-06-26,44177
2019-06-29,43392
2019-06-30,30499
2019-07-30,49870
2019-08-07,49909
2019-07-21,31355
2019-08-25,36519
2019-08-31,54760
2019-11-24,30640
2019-11-27,46905
2019-11-30,41139
2019-12-02,37389
2019-07-03,46589
2019-07-07,28992
2019-07-12,48683
2019-07-20,44883
2019-09-08,37956
2019-12-12,43318
2020-11-11,29958
2020-11-26,14746
2020-11-30,24627
2020-12-01,27153
2020-12-24,27869
2020-12-30,29424
2021-01-26,24356
2021-01-30,26922
2021-02-06,27230
2021-02-14,19234
2021-02-15,22340
2021-03-04,28518
2021-03-17,33271
2021-03-21,24894
2021-04-02,36437
2021-04-09,33760
2021-05-06,31636
2021-05-07,33293
2021-05-13,31637
2021-05-18,28109
2021-06-02,35130
2021-06-05,35769
2021-06-14,31608
2021-06-23,34533
2021-06-28,32230
2021-07-10,34028
