vdate,projected_visits
2019-09-04,39524
2019-09-25,37803
2019-09-26,37985
2019-10-06,25592
2019-10-08,36751
2020-01-30,28664
2020-02-01,27877
2020-01-14,28865
2020-02-05,27934
2020-02-14,30481
2020-02-13,28951
2020-02-08,27519
2020-02-25,28700
2020-04-23,18516
2020-05-04,20177
2020-05-09,21508
2020-05-10,14069
2020-05-19,23293
2020-05-30,24441
2020-06-10,25935
2020-07-05,12916
2020-07-12,15822
2020-07-13,24174
2020-07-21,25564
2020-07-27,23993
2020-08-01,24891
2020-08-12,25556
2020-08-27,23182
2020-09-04,26918
2020-09-13,16443
2020-09-27,16378
2020-10-21,23396
2020-11-04,21059
2020-11-05,20972
2019-10-14,31312
2019-10-24,33831
2019-12-31,29610
2019-12-22,22792
2019-12-25,13326
2019-12-26,21587
2019-12-28,27463
2020-01-03,29701
2019-12-13,32891
2020-01-06,26438
2018-12-31,150
2018-12-29,25
2018-12-30,30
2018-12-15,1
2018-12-22,6
2018-12-19,3
2019-01-13,5705
2019-01-14,7655
2019-01-18,9051
2019-01-21,7731
2019-01-24,9419
2019-02-12,10453
2019-02-14,12085
2019-02-22,12912
2019-02-25,12126
2019-02-27,13360
2019-10-26,33518
2019-11-02,33544
2019-12-15,23858
2019-03-21,17316
2019-03-30,18414
2019-04-07,13614
2019-04-08,18444
2019-04-25,21511
2019-04-29,21001
2019-05-03,24389
2019-05-26,17772
2019-05-31,29958
2019-06-13,28671
2019-06-08,27189
2019-06-19,30104
2019-07-29,32531
2019-08-01,35603
2019-08-05,32711
2019-08-06,34608
2019-07-28,23080
2019-09-01,25478
2019-11-18,28844
2019-11-19,31051
2019-11-29,25569
2019-12-05,31594
2019-07-06,27653
2019-07-08,30192
2019-07-15,31209
2019-12-10,30841
2020-11-09,19400
2020-11-19,15757
2020-11-28,19952
2020-12-02,19877
2020-12-05,20157
2020-12-08,19863
2020-12-12,20419
2020-12-25,9258
2020-12-29,21622
2021-01-10,14202
2021-01-28,18230
2021-02-03,17486
2021-02-07,13348
2021-02-08,16221
2021-02-17,17126
2021-02-18,15769
2021-02-19,16877
2021-02-25,21025
2021-03-05,21768
2021-03-07,16881
2021-03-13,23336
2021-03-14,20761
2021-03-18,23732
2021-03-23,23688
2021-03-28,16833
2021-04-15,22642
2021-04-16,24069
2021-04-19,21782
2021-04-27,22613
2021-05-01,24592
2021-05-05,22827
2021-05-10,21509
2021-05-19,22184
2021-05-27,26147
2021-05-30,16884
2021-05-31,18348
2021-06-10,25171
2021-06-21,23873
2021-06-25,27001
2021-07-05,18956
2021-07-07,24842
2021-07-11,16661
2021-07-15,25930
2021-07-17,25383
2021-08-02,3996
2021-08-01,17564
2019-09-07,36993
2019-09-21,39324
2019-09-29,25899
2019-09-03,36915
2019-09-05,39383
2019-09-15,27770
2020-01-09,28790
2020-01-17,29642
2020-02-06,27985
2020-02-12,28828
2020-02-17,26684
2020-02-28,30303
2020-02-29,29637
2020-03-09,30328
2020-03-12,31194
2020-03-25,16886
2020-03-30,15467
2020-04-26,11282
2020-04-27,18333
2020-04-29,19966
2020-05-01,21799
2020-05-03,12829
2020-05-05,21311
2020-05-28,25001
2020-05-31,15956
2020-06-02,24819
2020-06-05,27137
2020-06-06,24745
2020-06-16,25705
2020-06-26,27539
2020-06-29,24785
2020-07-18,24338
2020-07-31,27763
2020-08-06,26083
2020-08-14,26733
2020-08-15,25154
2020-08-16,16209
2020-08-17,24014
2020-08-22,24812
2020-09-01,24263
2020-09-08,23704
2020-09-09,24419
2020-09-20,15520
2020-09-21,20850
2020-09-26,24641
2020-10-01,25132
2020-10-09,40775
2020-10-11,15992
2020-10-14,23839
2020-10-15,23682
2020-10-30,24890
2020-01-01,18313
2019-12-18,31761
2019-12-21,31804
2019-12-14,31239
2019-12-16,29893
2018-12-24,10
2018-12-28,23
2018-12-17,1
2019-01-04,7589
2018-12-16,1
2019-01-07,7252
2018-12-10,1
2019-01-08,7894
2019-01-12,7796
2018-12-25,1
2019-01-17,8919
2019-01-26,9367
2019-01-28,9377
2019-01-31,9702
2019-02-18,10786
2019-02-20,11553
2019-03-02,13241
2019-03-03,10431
2019-03-07,14166
2020-11-06,22123
2019-03-10,13027
2019-03-15,17933
2019-03-18,16201
2019-03-26,17773
2019-04-02,18387
2019-04-04,18931
2019-04-09,19557
2019-04-11,19459
2019-04-16,20363
2019-04-19,22197
2019-05-02,22686
2019-05-09,23575
2019-05-13,22708
2019-05-15,24571
2019-05-17,26002
2019-06-06,28434
2019-06-07,30171
2019-06-22,29204
2019-06-24,28738
2019-06-25,30870
2019-07-22,31782
2019-08-09,35912
2019-08-12,32949
2019-08-16,37464
2019-07-27,32401
2019-08-21,36407
2019-08-24,35920
2019-11-20,31130
2019-11-22,34308
2019-11-26,32854
2020-11-10,20769
2020-11-24,21528
2020-11-27,16907
2020-11-25,19150
2020-12-26,11987
2020-12-31,21360
2021-01-27,17892
2021-02-04,18557
2021-02-11,17675
2021-02-21,14978
2021-03-11,21003
2021-03-10,20787
2021-03-15,22629
2021-03-16,22991
2021-03-20,27467
2021-04-14,22655
2021-04-26,22022
2021-05-04,22626
2021-05-09,16974
2021-05-15,24339
2021-05-20,23593
2021-05-21,24808
2021-05-24,23537
2021-07-04,14518
2021-07-18,17592
2021-07-23,26793
2021-07-28,25460
2021-07-29,25894
2021-07-30,27028
2019-09-24,38701
2019-10-02,37829
2019-10-03,38008
2019-10-04,39577
2019-09-10,39128
2020-01-11,26989
2020-01-16,28972
2020-01-26,20480
2020-01-27,27235
2020-01-28,28255
2020-01-29,28365
2020-02-03,26260
2020-01-13,27560
2020-02-19,28008
2020-02-27,28886
2020-03-08,25203
2020-03-16,25329
2020-03-24,17642
2020-04-10,16941
2020-04-14,16682
2020-04-15,17491
2020-04-19,10599
2020-04-24,19541
2020-04-25,18251
2020-04-28,20016
2020-05-11,20223
2020-05-15,23680
2020-05-29,26754
2020-06-14,16355
2020-06-17,25743
2020-07-06,24138
2020-07-09,25435
2020-07-16,25866
2020-07-23,25626
2020-07-24,27058
2020-07-26,15587
2020-08-19,24705
2020-08-26,24277
2020-08-29,24312
2020-09-05,24681
2020-10-06,23178
2020-10-16,25036
2020-10-18,16183
2020-10-19,22471
2020-10-24,24236
2020-10-26,22111
2020-10-31,24408
2019-12-24,29779
2019-12-11,30900
2019-01-01,2738
2018-12-12,2
2018-12-26,9
2019-01-05,7146
2019-01-11,8277
2019-01-27,7566
2019-01-29,9927
2019-02-02,10301
2019-02-13,11299
2019-02-19,12081
2019-02-21,11791
2019-03-01,14192
2019-10-30,33837
2019-11-01,35977
2019-11-06,31004
2019-11-13,30483
2019-11-14,30941
2019-03-11,15375
2019-03-14,16572
2019-03-24,12700
2019-03-28,18097
2019-03-29,19500
2019-04-05,19827
2019-04-15,19225
2019-06-09,20069
2019-06-21,31695
2019-08-10,32951
2019-08-20,36582
2019-08-23,38416
2019-11-15,32161
2019-12-01,20475
2020-11-14,21175
2020-11-21,21052
2020-11-29,13985
2020-12-06,14721
2020-12-10,20273
2020-12-17,18121
2020-12-22,22113
2020-12-28,18479
2021-01-04,17535
2021-01-19,20159
2021-01-21,18771
2021-01-23,19350
2021-01-24,14052
2021-02-01,14749
2021-02-05,19271
2021-02-13,18993
2021-02-16,15679
2021-02-20,19187
2021-02-22,18411
2021-02-23,19908
2021-03-03,20457
2021-03-12,22403
2021-03-25,22987
2021-04-01,22449
2021-04-03,25194
2021-04-22,22697
2021-05-08,25487
2021-06-12,25412
2021-06-13,17692
2021-06-18,27363
2021-06-22,25226
2021-06-27,17257
2021-07-03,23797
2021-07-08,25099
2021-07-26,23869
2021-07-31,25026
2020-11-16,19058
2019-09-13,41961
2019-09-09,37665
2020-01-21,29477
2020-01-22,28229
2020-01-25,26844
2020-01-15,28941
2020-01-19,19381
2020-02-16,20902
2020-02-21,28475
2020-02-23,21241
2020-03-07,28557
2020-04-02,16477
2020-04-06,14383
2020-04-07,15751
2020-04-16,17762
2020-04-20,16998
2020-05-02,20262
2020-05-06,20860
2020-05-21,23823
2020-05-25,16372
2020-05-26,23173
2020-06-19,28207
2020-06-24,26221
2020-06-25,26525
2020-07-10,26615
2020-07-14,25591
2020-07-15,25478
2020-07-20,23768
2020-07-28,25601
2020-08-02,15766
2020-08-03,24230
2020-08-09,16096
2020-08-21,26363
2020-08-31,23151
2020-09-07,16829
2020-10-08,29118
2020-10-25,16143
2020-10-27,23017
2019-09-11,38762
2019-10-11,37381
2019-10-15,33826
2019-10-19,32699
2019-10-20,22720
2019-12-30,26419
2019-12-20,35031
2019-12-27,30328
2019-12-06,32665
2020-01-05,19320
2018-12-08,1
2018-12-18,1
2019-01-16,8644
2019-01-22,9442
2019-01-25,10104
2019-02-24,7304
2019-02-26,12924
2019-02-28,13522
2019-03-17,12275
2019-04-12,20750
2019-04-13,19555
2019-04-18,21014
2019-04-26,22807
2019-05-08,23269
2019-05-11,23736
2019-05-19,17682
2019-05-27,18454
2019-05-28,26159
2019-06-01,26958
2019-06-04,27859
2019-06-23,20841
2019-06-27,31047
2019-08-13,34708
2019-08-04,23605
2019-07-23,34125
2019-07-24,33707
2019-08-28,37365
2019-08-29,38394
2019-09-02,24895
2019-11-21,31733
2019-12-03,30363
2019-12-09,28670
2020-11-17,20147
2020-12-09,20047
2020-12-14,18480
2021-01-01,13302
2021-01-09,18884
2021-01-17,14357
2021-01-18,18301
2021-01-20,18320
2021-02-24,20343
2021-02-26,21404
2021-02-28,16804
2021-03-06,22281
2021-03-09,20914
2021-03-24,23368
2021-03-31,23540
2021-04-05,21920
2021-04-07,23618
2021-04-13,22897
2021-04-28,22657
2021-05-03,21684
2021-05-14,24824
2021-05-17,22532
2021-05-28,28047
2021-06-07,24386
2021-06-15,24623
2021-06-29,25182
2021-07-01,26209
2021-07-12,23717
2021-07-14,25420
2021-07-16,27019
2021-07-21,25357
2019-09-19,40997
2019-09-22,27376
2019-09-28,36463
2019-09-14,38729
2019-09-17,40383
2020-01-10,29801
2020-01-20,25683
2020-02-02,20700
2020-01-24,29119
2020-01-12,19734
2020-02-11,28713
2020-02-24,27848
2020-03-01,22320
2020-03-04,28654
2020-03-10,31028
2020-03-11,31299
2020-03-14,27504
2020-03-15,16349
2020-03-19,22639
2020-04-08,15847
2020-04-18,16731
2020-05-12,21509
2020-05-17,14282
2020-05-24,14916
2020-05-27,24839
2020-06-09,25718
2020-06-13,25210
2020-06-22,24446
2020-06-23,26015
2020-06-28,15995
2020-07-01,26417
2020-07-04,17405
2020-07-08,25489
2020-07-17,27164
2020-08-08,24986
2020-08-10,24159
2020-08-18,25030
2020-08-24,23184
2020-08-25,24294
2020-09-11,25663
2020-09-12,24878
2020-09-15,23792
2020-09-22,23197
2020-09-23,24213
2020-09-28,22553
2020-09-30,27716
2020-10-02,25288
2020-10-03,24400
2020-10-13,23355
2020-10-20,23730
2020-10-29,23286
2019-10-09,35279
2019-10-13,22896
2019-10-21,31887
2020-01-02,24092
2019-01-03,7308
2019-01-06,5626
2019-01-09,7506
2018-12-14,2
2019-02-07,10966
2019-02-15,12728
2019-02-17,8997
2019-02-23,12324
2019-03-04,11783
2019-10-29,33785
2019-11-10,22538
2019-11-11,27827
2019-03-16,17048
2019-04-10,19587
2019-04-17,20364
2019-04-30,21937
2019-05-05,16589
2019-05-07,23395
2019-05-10,25243
2019-05-12,16942
2019-06-15,27066
2019-06-28,32200
2019-08-15,35611
2019-07-18,33439
2019-07-19,34525
2019-08-03,32902
2019-08-18,24519
2019-08-02,36369
2019-08-19,34428
2019-07-25,34253
2019-08-26,35381
2019-11-25,29136
2019-11-28,20081
2019-07-04,21059
2019-07-05,28308
2019-07-10,32651
2019-07-11,32369
2019-07-14,21340
2020-11-08,15843
2020-11-20,21526
2020-11-22,15130
2020-12-07,18494
2020-12-11,21064
2020-12-15,20351
2021-01-02,14607
2021-01-08,19005
2021-01-12,18522
2021-01-14,18694
2021-01-15,19667
2021-01-25,17036
2021-02-09,18106
2021-02-12,19244
2021-02-27,22010
2021-03-01,19526
2021-03-02,20163
2021-03-27,26019
2021-03-30,24011
2021-04-04,13876
2021-04-08,23658
2021-04-18,16788
2021-04-21,22492
2021-04-23,24285
2021-04-24,24415
2021-04-25,16725
2021-04-30,25131
2021-05-29,25187
2021-06-08,24990
2021-06-09,25235
2021-06-19,25510
2021-06-26,25716
2021-07-02,27427
2021-07-06,24311
2021-07-25,17354
2021-07-27,25175
2020-11-15,15272
2019-09-16,38203
2019-09-18,40325
2019-09-27,39536
2019-09-06,40623
2019-10-07,35430
2020-01-31,29606
2020-01-18,26402
2020-02-20,27724
2020-02-22,27946
2020-02-26,29199
2020-03-02,27879
2020-03-17,24416
2020-03-20,19290
2020-03-29,8810
2020-04-04,13937
2020-04-05,8587
2020-04-21,18091
2020-05-08,22500
2020-05-23,23314
2020-06-08,24377
2020-06-12,27395
2020-06-15,24487
2020-06-18,25877
2020-07-19,15618
2020-07-29,25950
2020-08-04,24353
2020-08-05,25867
2020-08-11,25500
2020-08-13,25294
2020-08-20,25095
2020-08-30,16466
2020-09-02,24650
2020-09-03,25334
2020-09-14,22783
2020-09-17,23792
2020-09-25,25284
2020-09-29,23359
2020-10-10,27000
2020-10-12,22240
2020-10-17,24483
2020-10-23,25429
2019-10-16,33820
2019-10-17,34425
2019-10-18,35922
2019-12-08,22736
2018-12-27,9
2019-01-10,7761
2019-01-15,8476
2019-01-20,5949
2019-02-01,10691
2019-02-03,7630
2019-02-05,10605
2019-03-08,14818
2019-03-12,16076
2019-03-13,16595
2019-03-22,18305
2019-03-25,16886
2019-03-27,17890
2019-04-03,19057
2019-04-06,18741
2019-04-21,13044
2019-04-23,20808
2019-04-27,21490
2019-05-01,22469
2019-05-04,21912
2019-05-06,22449
2019-05-14,23796
2019-05-16,24992
2019-05-23,27060
2019-05-24,28721
2019-05-25,25469
2019-07-01,29461
2019-07-26,35817
2019-07-31,35632
2019-08-08,34976
2019-08-17,34074
2019-08-22,36856
2019-08-30,41207
2019-11-16,30487
2019-11-23,26865
2019-12-04,31107
2020-11-07,21103
2019-07-02,31475
2019-07-09,32547
2019-07-16,32865
2020-11-12,21470
2020-11-18,10380
2020-12-03,20051
2020-12-04,20845
2020-12-13,15387
2020-12-16,20303
2020-12-19,21267
2020-12-21,16980
2020-12-23,22990
2021-01-03,13279
2021-01-05,19694
2021-01-07,18964
2021-01-31,14363
2021-03-08,20046
2021-03-19,25887
2021-03-29,22640
2021-04-06,23537
2021-04-10,24927
2021-04-29,22678
2021-05-16,16646
2021-05-23,16690
2021-05-25,25207
2021-06-03,25947
2021-06-04,27586
2021-06-06,17542
2021-06-24,25832
2021-07-09,26579
2021-07-13,25170
2021-07-19,24574
2021-07-20,25261
2021-07-22,25809
2019-09-30,35117
2019-10-05,37037
2020-01-04,26837
2020-02-15,28136
2020-03-21,13656
2020-03-22,8963
2020-03-23,17198
2020-03-26,17100
2020-03-27,17803
2020-03-28,14320
2020-04-09,15773
2020-04-12,7816
2020-04-13,14039
2020-04-17,18656
2020-05-07,21208
2020-05-13,20318
2020-05-14,22396
2020-05-18,21684
2020-05-22,25900
2020-06-03,24781
2020-06-04,25531
2020-06-07,16196
2020-06-11,25826
2020-06-21,16573
2020-06-27,24896
2020-07-02,27140
2020-07-03,28186
2020-07-11,24649
2020-07-25,24684
2020-08-07,26807
2020-08-23,16346
2020-09-18,24782
2020-10-07,25163
2020-10-28,23462
2020-11-02,19707
2020-11-03,21607
2019-10-12,33935
2019-10-23,33602
2019-12-29,19300
2020-01-07,29572
2019-01-02,5913
2018-12-20,3
2019-01-19,8346
2019-01-23,9395
2019-02-06,10729
2019-02-08,11331
2019-02-09,10699
2019-02-10,8370
2019-02-11,10498
2019-03-05,13178
2019-10-28,31948
2019-10-31,34536
2019-11-03,19225
2019-11-04,29258
2019-11-05,30721
2019-11-09,30277
2019-03-19,16639
2019-03-31,13107
2019-04-01,17603
2019-04-14,13883
2019-04-22,19649
2019-05-18,24245
2019-05-20,24796
2019-05-29,27575
2019-06-03,27072
2019-06-11,29249
2019-06-17,27945
2019-06-20,30099
2019-08-14,35212
2019-08-11,23649
2019-08-27,37082
2019-11-17,23157
2019-07-13,30400
2019-07-17,33703
2019-12-07,30510
2020-11-13,21615
2020-11-23,19490
2020-12-18,20503
2020-12-20,15348
2020-12-27,12845
2021-01-06,19268
2021-01-11,17172
2021-01-13,18681
2021-01-16,19227
2021-01-22,19590
2021-01-29,18999
2021-02-02,15789
2021-02-10,18550
2021-03-22,23546
2021-03-26,25180
2021-04-11,16575
2021-04-12,22014
2021-04-17,24536
2021-04-20,22495
2021-05-02,16470
2021-05-11,22398
2021-05-12,22756
2021-05-22,24093
2021-05-26,25189
2021-06-01,25067
2021-06-11,26355
2021-06-16,25231
2021-06-17,25581
2021-06-20,17616
2021-06-30,25809
2021-07-24,25281
2019-09-20,42907
2019-09-23,37441
2019-10-01,37428
2020-01-23,28239
2020-01-08,28641
2020-02-04,28388
2020-02-07,29260
2020-02-09,20855
2020-02-10,26811
2020-02-18,28880
2020-03-03,29235
2020-03-05,29001
2020-03-06,29986
2020-03-13,32620
2020-03-18,23050
2020-03-31,16380
2020-04-01,16118
2020-04-03,16713
2020-04-11,14707
2020-04-22,18735
2020-04-30,20212
2020-05-16,22230
2020-05-20,23637
2020-06-01,23894
2020-06-20,25892
2020-06-30,26688
2020-07-07,25777
2020-07-22,25562
2020-07-30,26102
2020-08-28,25869
2020-09-06,16289
2020-09-10,24697
2020-09-16,23122
2020-09-19,24060
2020-09-24,24100
2020-10-04,16265
2020-10-05,22605
2020-10-22,23665
2020-11-01,12826
2019-10-10,35615
2019-10-22,33747
2019-10-25,35676
2019-12-19,32677
2019-12-23,31204
2019-12-17,29309
2019-12-12,31461
2018-12-23,4
2018-12-13,2
2018-12-21,3
2019-01-30,9749
2019-02-04,9446
2019-02-16,11087
2019-03-06,13726
2019-10-27,22480
2019-11-07,31253
2019-11-08,32332
2019-11-12,30199
2019-03-09,14347
2019-03-20,17187
2019-03-23,17377
2019-04-20,20227
2019-04-24,21231
2019-04-28,15603
2019-05-21,25806
2019-05-22,26435
2019-05-30,27532
2019-06-02,19334
2019-06-16,20164
2019-06-14,36682
2019-06-05,28436
2019-06-12,29398
2019-06-10,27411
2019-06-18,29408
2019-06-26,31159
2019-06-29,29569
2019-06-30,21271
2019-08-07,35099
2019-07-21,21942
2019-07-30,34869
2019-08-25,25968
2019-08-31,36528
2019-11-24,21305
2019-11-27,33852
2019-11-30,29438
2019-12-02,27776
2019-07-03,32485
2019-07-07,19812
2019-07-12,34051
2019-07-20,31103
2019-09-08,26766
2019-09-12,39827
2020-11-11,21300
2020-11-26,11075
2020-11-30,18181
2020-12-01,19521
2020-12-24,20626
2020-12-30,21693
2021-01-26,18170
2021-01-30,19512
2021-02-06,19369
2021-02-14,13944
2021-02-15,15460
2021-03-04,21047
2021-03-17,23933
2021-03-21,18083
2021-04-02,26717
2021-04-09,24945
2021-05-06,23124
2021-05-07,24396
2021-05-13,23401
2021-05-18,20661
2021-06-02,26046
2021-06-05,25817
2021-06-14,23709
2021-06-23,25477
2021-06-28,23899
2021-07-10,24595
